…
<img src="R_housing_v3Advanced_files/figure-gfm/unnamed-chunk-5-1.png" width="\textwidth" />

``` r
col_nas <- tibble(feature = names(housing_train), 
                  pct_na = vapply(housing_train, function(x) mean(is.na(x)), c(num = 0))) %>% 
  arrange(desc(pct_na)) %>% 
  filter(pct_na < .15)

col_nas_rm <- col_nas$feature

col_nas
```

    ## # A tibble: 75 x 2
    ##    feature        pct_na
    ##    <chr>           <dbl>
    ##  1 garage_type    0.0555
    ##  2 garage_yr_blt  0.0555
    ##  3 garage_finish  0.0555
    ##  4 garage_qual    0.0555
    ##  5 garage_cond    0.0555
    ##  6 bsmt_exposure  0.0260
    ##  7 bsmt_fin_type2 0.0260
    ##  8 bsmt_qual      0.0253
    ##  9 bsmt_cond      0.0253
    ## 10 bsmt_fin_type1 0.0253
    ## # ... with 65 more rows
…
xgb_grid <- grid_latin_hypercube(
    xgb_params,
    size = 30
)

xgb_grid
```

    ## # A tibble: 30 x 6
    ##    min_n tree_depth learn_rate loss_reduction sample_size  mtry
    ##    <int>      <int>      <dbl>          <dbl>       <dbl> <int>
    ##  1     5         14   3.12e- 2  0.00000984          0.284    42
    ##  2    30          8   1.54e-10  0.375               0.186    25
    ##  3     8          9   3.73e- 9  0.000702            0.121     7
    ##  4    33         12   3.69e- 8  0.00000000135       0.545    44
    ##  5    28          3   1.17e- 6 19.0                 0.476    18
    ##  6    22          4   6.91e- 9  0.0000000144        0.330     5
    ##  7    31          7   3.59e- 6  0.000000113         0.579    69
    ##  8    40          4   2.69e- 4  0.00000000264       0.852    25
    ##  9    12          4   2.24e- 6  0.0183              0.814    52
    ## 10     4         11   1.67e- 3  0.00000335          0.945    47
    ## # ... with 20 more rows
…
